[
  {
    "name": "Achington",
    "region": "Iagroydal",
    "populationCount": 118023,
    "dominatingRace": "Barbaric Waterway Elf"
  },
  {
    "name": "Adrana",
    "region": "Iagroydal",
    "populationCount": 230338,
    "dominatingRace": "Cursed Fire Halfling"
  },
  {
    "name": "Aglington",
    "region": "Soscuyvania",
    "populationCount": 156316,
    "dominatingRace": "Dark Ogre"
  },
  {
    "name": "Briutan",
    "region": "Soscuyvania",
    "populationCount": 378381,
    "dominatingRace": "Dark Ogre"
  },
  {
    "name": "Choed Prar",
    "region": "Iagroydal",
    "populationCount": 439263,
    "dominatingRace": "Dark Ogre"
  },
  {
    "name": "Choissau",
    "region": "Jocraria",
    "populationCount": 720770,
    "dominatingRace": "Barbaric Waterway Elf"
  },
  {
    "name": "Chuora",
    "region": "Soscuyvania",
    "populationCount": 139172,
    "dominatingRace": "Cursed Fire Halfling"
  },
  {
    "name": "Cleaz Dron",
    "region": "Soscuyvania",
    "populationCount": 166891,
    "dominatingRace": "Cursed Fire Halfling"
  },
  {
    "name": "Crey Whein",
    "region": "Soscuyvania",
    "populationCount": 346658,
    "dominatingRace": "Gray Merfolk"
  },
  {
    "name": "Dreyrhiel",
    "region": "Iagroydal",
    "populationCount": 534434,
    "dominatingRace": "Human-Ogre"
  },
  {
    "name": "Dugrijan",
    "region": "Jocraria",
    "populationCount": 435258,
    "dominatingRace": "Barbaric Waterway Elf"
  },
  {
    "name": "Eflad",
    "region": "Kethijan",
    "populationCount": 995708,
    "dominatingRace": "Cursed Fire Halfling"
  },
  {
    "name": "Eshal",
    "region": "Soscuyvania",
    "populationCount": 304360,
    "dominatingRace": "Human-Ogre"
  },
  {
    "name": "Eshiland",
    "region": "Iagroydal",
    "populationCount": 661328,
    "dominatingRace": "Human-Ogre"
  },
  {
    "name": "Eskary",
    "region": "Iagroydal",
    "populationCount": 54576,
    "dominatingRace": "Barbaric Waterway Elf"
  },
  {
    "name": "Esloeton",
    "region": "Jocraria",
    "populationCount": 420679,
    "dominatingRace": "Human-Ogre"
  },
  {
    "name": "Eswaubar",
    "region": "Soscuyvania",
    "populationCount": 312369,
    "dominatingRace": "Cursed Fire Halfling"
  },
  {
    "name": "Fruostan",
    "region": "Kethijan",
    "populationCount": 111453,
    "dominatingRace": "Human-Ogre"
  },
  {
    "name": "Greil Skus",
    "region": "Kethijan",
    "populationCount": 714201,
    "dominatingRace": "Human-Ogre"
  },
  {
    "name": "Griegro",
    "region": "Soscuyvania",
    "populationCount": 885958,
    "dominatingRace": "Cursed Fire Halfling"
  },
  {
    "name": "Heglines",
    "region": "Soscuyvania",
    "populationCount": 896533,
    "dominatingRace": "Human-Ogre"
  },
  {
    "name": "Iostril",
    "region": "Kethijan",
    "populationCount": 864809,
    "dominatingRace": "Barbaric Waterway Elf"
  },
  {
    "name": "Koproagua",
    "region": "Iagroydal",
    "populationCount": 959980,
    "dominatingRace": "Human-Ogre"
  },
  {
    "name": "Lograessau",
    "region": "Kethijan",
    "populationCount": 674468,
    "dominatingRace": "Human-Ogre"
  },
  {
    "name": "Mothon",
    "region": "Jocraria",
    "populationCount": 541004,
    "dominatingRace": "Human-Ogre"
  },
  {
    "name": "Nusteso",
    "region": "Kethijan",
    "populationCount": 678472,
    "dominatingRace": "Barbaric Waterway Elf"
  },
  {
    "name": "Obron",
    "region": "Kethijan",
    "populationCount": 266066,
    "dominatingRace": "Human-Ogre"
  },
  {
    "name": "Oshary",
    "region": "Iagroydal",
    "populationCount": 513285,
    "dominatingRace": "Cursed Fire Halfling"
  },
  {
    "name": "Oskor",
    "region": "Kethijan",
    "populationCount": 498706,
    "dominatingRace": "Cursed Fire Halfling"
  },
  {
    "name": "Ostrain",
    "region": "Kethijan",
    "populationCount": 805367,
    "dominatingRace": "Human-Ogre"
  },
  {
    "name": "Plailor",
    "region": "Jocraria",
    "populationCount": 875384,
    "dominatingRace": "Barbaric Waterway Elf"
  },
  {
    "name": "Pufruyyae",
    "region": "Soscuyvania",
    "populationCount": 928256,
    "dominatingRace": "Human-Ogre"
  },
  {
    "name": "Retrea",
    "region": "Iagroydal",
    "populationCount": 769638,
    "dominatingRace": "Human-Ogre"
  },
  {
    "name": "Sawhia",
    "region": "Soscuyvania",
    "populationCount": 255492,
    "dominatingRace": "Human-Ogre"
  },
  {
    "name": "Skoycia",
    "region": "Soscuyvania",
    "populationCount": 545008,
    "dominatingRace": "Human-Ogre"
  },
  {
    "name": "Sluaf Greau",
    "region": "Kethijan",
    "populationCount": 100879,
    "dominatingRace": "Barbaric Waterway Elf"
  },
  {
    "name": "Smoys Skein",
    "region": "Jocraria",
    "populationCount": 745924,
    "dominatingRace": "Human-Ogre"
  },
  {
    "name": "Soshaece",
    "region": "Soscuyvania",
    "populationCount": 790787,
    "dominatingRace": "Human-Ogre"
  },
  {
    "name": "Spueg Stil",
    "region": "Kethijan",
    "populationCount": 192045,
    "dominatingRace": "Cursed Fire Halfling"
  },
  {
    "name": "Steyr Smijan",
    "region": "Jocraria",
    "populationCount": 735350,
    "dominatingRace": "Cursed Fire Halfling"
  },
  {
    "name": "Swoay Bria",
    "region": "Iagroydal",
    "populationCount": 822511,
    "dominatingRace": "Human-Ogre"
  },
  {
    "name": "Swuena",
    "region": "Kethijan",
    "populationCount": 96874,
    "dominatingRace": "Human-Ogre"
  },
  {
    "name": "Thoii Skar",
    "region": "Kethijan",
    "populationCount": 699621,
    "dominatingRace": "Barbaric Waterway Elf"
  },
  {
    "name": "Thuoya",
    "region": "Kethijan",
    "populationCount": 917682,
    "dominatingRace": "Human-Ogre"
  },
  {
    "name": "Ubrana",
    "region": "Iagroydal",
    "populationCount": 160321,
    "dominatingRace": "Human-Ogre"
  },
  {
    "name": "Uslary",
    "region": "Kethijan",
    "populationCount": 103444,
    "dominatingRace": "Human-Ogre"
  },
  {
    "name": "Ustaeze",
    "region": "Soscuyvania",
    "populationCount": 536999,
    "dominatingRace": "Human-Ogre"
  },
  {
    "name": "Vobroebia",
    "region": "Jocraria",
    "populationCount": 953410,
    "dominatingRace": "Barbaric Waterway Elf"
  },
  {
    "name": "Weshela",
    "region": "Iagroydal",
    "populationCount": 318939,
    "dominatingRace": "Human-Ogre"
  },
  {
    "name": "Xablourus",
    "region": "Soscuyvania",
    "populationCount": 445335,
    "dominatingRace": "Barbaric Waterway Elf"
  }
]